Simulation Highlighting Effect of Class Imbalance on Prediction Accuracy
…
    tibble(n1            = nrow(c1_boot),    # collect output in `tibble`
           n2            = nrow(c2_down),    # number of class 2
           class_balance = class_prop,       # class 1 proportion
           accuracy      = acc)              # accuracy
  })

simres         # view the `tibble` of the simulation

## # A tibble: 190 x 4
##       n1    n2 class_balance accuracy
##    <int> <int>         <dbl>    <dbl>
##  1   206   194         0.515    0.855
##  2   207   193         0.518    0.86 
##  3   208   192         0.52     0.865
##  4   209   191         0.522    0.858
##  5   210   190         0.525    0.86 
##  6   211   189         0.528    0.865
##  7   212   188         0.53     0.865
##  8   213   187         0.532    0.872
##  9   214   186         0.535    0.862
## 10   215   185         0.538    0.858
## #  with 180 more rows
…
